Data transformation: Rows – Introduction to R
…
Example: filtering degree

For degree, the possible values are: NA, None, GED, High school diploma, Associate's degree, Bachelor's degree, and Master's degree, Professional degree (Ph.D./M.D./JD)

hrs_data |>
  filter(
1    degree == "Master's degree"
    )

1

We must include ” ” around the value for categorical variables. The exact spelling needs to match.

# A tibble: 444 × 31
  hhid   pn    birthyr birthmo birthdate   age    ed degree proxy coupled female
  <chr>  <chr>   <dbl>   <dbl>     <dbl> <dbl> <dbl> <chr>  <chr> <chr>   <chr> 
1 557411 010      1970       3      3698    53    16 Maste… Resp… Marrie… Female
2 557020 020      1969       2      3302    53    16 Maste… Resp… Marrie… Male  
3 550524 010      1952      12     -2573    69    16 Maste… Resp… No spo… Male  
4 555572 020      1966       9      2449    57    17 Maste… Resp… Marrie… Female
5 557909 020      1986      12      9327    35    16 Maste… Resp… Marrie… Female
# ℹ 439 more rows
# ℹ 20 more variables: age_months <dbl>, race_original <chr>, smokeever <chr>,
#   smoke2now <chr>, drink <chr>, weight <dbl>, self_health <chr>,
#   high_bp <chr>, diab <chr>, cancer <chr>, lung_dis <chr>, heart_dis <chr>,
#   strk <chr>, psych_prob <chr>, sleep_prob <chr>, arthritis <chr>,
#   cond_count <dbl>, r16hosp <dbl>, r16cesd <dbl>, income <dbl>
…
Example: filtering degree for everything except a Master’s

If we want everything* except Master’s degrees, we use the “not equal” sign (!=)

*Everything does not include NA values, which we will discuss in the next slide

hrs_data |>
  filter(
    degree != "Master's degree"
    )

# A tibble: 1,804 × 31
   hhid  pn    birthyr birthmo birthdate   age    ed degree proxy coupled female
   <chr> <chr>   <dbl>   <dbl>     <dbl> <dbl> <dbl> <chr>  <chr> <chr>   <chr> 
 1 5590… 010      1967      12      2905    54    13 Assoc… Resp… No spo… Female
 2 5548… 020      1956       7     -1234    66     0 None   Resp… Marrie… Female
 3 5555… 020      1967       7      2752    55    10 None   Resp… Marrie… Female
 4 5557… 020      1954       6     -1934    68    12 High … Resp… Marrie… Female
 5 5521… 010      1965      10      2114    57    15 Assoc… Resp… Marrie… Male  
 6 5504… 010      1969       3      3361    54    14 Bache… Resp… Marrie… Female
 7 5517… 010      1969       4      3392    53    17 Profe… Resp… No spo… Female
 8 5512… 010      1966      10      2479    57    12 None   Resp… No spo… Male  
 9 5533… 010      1970      12      4001    51    12 High … Resp… No spo… Female
10 5527… 010      1953       8     -2361    69    13 High … Resp… Marrie… Male  
# ℹ 1,794 more rows
# ℹ 20 more variables: age_months <dbl>, race_original <chr>, smokeever <chr>,
#   smoke2now <chr>, drink <chr>, weight <dbl>, self_health <chr>,
#   high_bp <chr>, diab <chr>, cancer <chr>, lung_dis <chr>, heart_dis <chr>,
#   strk <chr>, psych_prob <chr>, sleep_prob <chr>, arthritis <chr>,
#   cond_count <dbl>, r16hosp <dbl>, r16cesd <dbl>, income <dbl>

New since Feb 2026: filter_out()

filter_out() requires {dplyr} 1.2.0 (or later version)

hrs_data |>
  filter_out(
    degree == "Master's degree"
    )

# A tibble: 2,284 × 31
   hhid  pn    birthyr birthmo birthdate   age    ed degree proxy coupled female
   <chr> <chr>   <dbl>   <dbl>     <dbl> <dbl> <dbl> <chr>  <chr> <chr>   <chr> 
 1 5590… 010      1967      12      2905    54    13 Assoc… Resp… No spo… Female
 2 5548… 020      1956       7     -1234    66     0 None   Resp… Marrie… Female
 3 5586… 010      1968       3      2996    54    NA <NA>   Resp… No spo… Female
 4 5555… 010      1966       4      2296    57    NA <NA>   Resp… No spo… Female
 5 5555… 020      1967       7      2752    55    10 None   Resp… Marrie… Female
 6 5576… 010      1971       5      4152    51    NA <NA>   Resp… No spo… Female
 7 5557… 020      1954       6     -1934    68    12 High … Resp… Marrie… Female
 8 5521… 010      1965      10      2114    57    15 Assoc… Resp… Marrie… Male  
 9 5504… 010      1969       3      3361    54    14 Bache… Resp… Marrie… Female
10 5517… 010      1969       4      3392    53    17 Profe… Resp… No spo… Female
# ℹ 2,274 more rows
# ℹ 20 more variables: age_months <dbl>, race_original <chr>, smokeever <chr>,
#   smoke2now <chr>, drink <chr>, weight <dbl>, self_health <chr>,
#   high_bp <chr>, diab <chr>, cancer <chr>, lung_dis <chr>, heart_dis <chr>,
#   strk <chr>, psych_prob <chr>, sleep_prob <chr>, arthritis <chr>,
#   cond_count <dbl>, r16hosp <dbl>, r16cesd <dbl>, income <dbl>
…
filter_out() keeps the NA values, while filter() with != does not keep the NA values (because NA is not equal to anything, including itself)

When using !=, I suggest using filter_out()

Filtering out missing values using drop_na()

We may want to remove rows that have missing data, which are coded as NA.

If we want to remove rows with missing data in ANY of the columns

AKA, we are only keeping complete observations

hrs_data |> drop_na()

# A tibble: 2,111 × 31
   hhid  pn    birthyr birthmo birthdate   age    ed degree proxy coupled female
   <chr> <chr>   <dbl>   <dbl>     <dbl> <dbl> <dbl> <chr>  <chr> <chr>   <chr> 
 1 5590… 010      1967      12      2905    54    13 Assoc… Resp… No spo… Female
 2 5555… 020      1967       7      2752    55    10 None   Resp… Marrie… Female
 3 5557… 020      1954       6     -1934    68    12 High … Resp… Marrie… Female
 4 5521… 010      1965      10      2114    57    15 Assoc… Resp… Marrie… Male  
 5 5504… 010      1969       3      3361    54    14 Bache… Resp… Marrie… Female
 6 5574… 010      1970       3      3698    53    16 Maste… Resp… Marrie… Female
 7 5517… 010      1969       4      3392    53    17 Profe… Resp… No spo… Female
 8 5512… 010      1966      10      2479    57    12 None   Resp… No spo… Male  
 9 5570… 020      1969       2      3302    53    16 Maste… Resp… Marrie… Male  
10 5533… 010      1970      12      4001    51    12 High … Resp… No spo… Female
# ℹ 2,101 more rows
# ℹ 20 more variables: age_months <dbl>, race_original <chr>, smokeever <chr>,
#   smoke2now <chr>, drink <chr>, weight <dbl>, self_health <chr>,
#   high_bp <chr>, diab <chr>, cancer <chr>, lung_dis <chr>, heart_dis <chr>,
#   strk <chr>, psych_prob <chr>, sleep_prob <chr>, arthritis <chr>,
#   cond_count <dbl>, r16hosp <dbl>, r16cesd <dbl>, income <dbl>

Filtering out missing values in specific columns using drop_na()

1hrs_data |> drop_na(degree)

1

This will only drop rows with NA values in the degree column, and will keep rows with NA values in other columns.

# A tibble: 2,248 × 31
   hhid  pn    birthyr birthmo birthdate   age    ed degree proxy coupled female
   <chr> <chr>   <dbl>   <dbl>     <dbl> <dbl> <dbl> <chr>  <chr> <chr>   <chr> 
 1 5590… 010      1967      12      2905    54    13 Assoc… Resp… No spo… Female
 2 5548… 020      1956       7     -1234    66     0 None   Resp… Marrie… Female
 3 5555… 020      1967       7      2752    55    10 None   Resp… Marrie… Female
 4 5557… 020      1954       6     -1934    68    12 High … Resp… Marrie… Female
 5 5521… 010      1965      10      2114    57    15 Assoc… Resp… Marrie… Male  
 6 5504… 010      1969       3      3361    54    14 Bache… Resp… Marrie… Female
 7 5574… 010      1970       3      3698    53    16 Maste… Resp… Marrie… Female
 8 5517… 010      1969       4      3392    53    17 Profe… Resp… No spo… Female
 9 5512… 010      1966      10      2479    57    12 None   Resp… No spo… Male  
10 5570… 020      1969       2      3302    53    16 Maste… Resp… Marrie… Male  
# ℹ 2,238 more rows
# ℹ 20 more variables: age_months <dbl>, race_original <chr>, smokeever <chr>,
#   smoke2now <chr>, drink <chr>, weight <dbl>, self_health <chr>,
#   high_bp <chr>, diab <chr>, cancer <chr>, lung_dis <chr>, heart_dis <chr>,
#   strk <chr>, psych_prob <chr>, sleep_prob <chr>, arthritis <chr>,
#   cond_count <dbl>, r16hosp <dbl>, r16cesd <dbl>, income <dbl>
…
Visual clarity when you look at data (see a variable ordered)

Helpful in conjunction with other functions (like count())

Example: sort data by ascending birth year

By default, arrage() sorts in ascending order:

hrs_data |> 
  arrange(
    birthyr
    )

# A tibble: 2,728 × 31
   hhid  pn    birthyr birthmo birthdate   age    ed degree proxy coupled female
   <chr> <chr>   <dbl>   <dbl>     <dbl> <dbl> <dbl> <chr>  <chr> <chr>   <chr> 
 1 5593… 010      1922      12    -12070    97    12 High … Resp… No spo… Female
 2 5593… 010      1922      12    -12314    95    12 High … Resp… No spo… Female
 3 5547… 010      1922       4    -12284    97    12 High … Resp… No spo… Female
 4 5547… 010      1926       5    -12284    95    12 High … Resp… No spo… Female
 5 5595… 010      1927       9    -12070   100    14 Assoc… Resp… No spo… Female
 6 5566… 010      1928       5    -10122    93    12 None   Resp… No spo… Male  
 7 5595… 010      1928       9    -13653   100    14 Assoc… Resp… No spo… Female
 8 5547… 010      1928       5    -13834   100    12 High … Resp… No spo… Female
 9 5567… 010      1930      11    -10609    90    11 None   Resp… Marrie… Male  
10 5527… 010      1931      12    -10122    91    14 Bache… Resp… No spo… Female
# ℹ 2,718 more rows
# ℹ 20 more variables: age_months <dbl>, race_original <chr>, smokeever <chr>,
#   smoke2now <chr>, drink <chr>, weight <dbl>, self_health <chr>,
#   high_bp <chr>, diab <chr>, cancer <chr>, lung_dis <chr>, heart_dis <chr>,
#   strk <chr>, psych_prob <chr>, sleep_prob <chr>, arthritis <chr>,
#   cond_count <dbl>, r16hosp <dbl>, r16cesd <dbl>, income <dbl>

Example: sort data by descending birth year

hrs_data |> 
  arrange(
1    desc(birthyr)
    )

1

We wrap birthyr in desc() to sort by descending birth year.

# A tibble: 2,728 × 31
   hhid  pn    birthyr birthmo birthdate   age    ed degree proxy coupled female
   <chr> <chr>   <dbl>   <dbl>     <dbl> <dbl> <dbl> <chr>  <chr> <chr>   <chr> 
 1 5533… 020      1990       7     10057    31    16 Assoc… Resp… Marrie… Female
 2 5532… 020      1990       8      8962    34     4 None   Resp… Marrie… Female
 3 5532… 020      1988       8      8474    40     3 None   Resp… Marrie… Female
 4 5538… 020      1987       9      9115    36    NA <NA>   Resp… Marrie… Female
 5 5516… 020      1987       7      9327    35    14 Bache… Resp… Marrie… Female
 6 5579… 020      1986      12      9327    35    16 Maste… Resp… Marrie… Female
 7 5579… 020      1986      12      9327    34    16 Maste… Resp… Marrie… Female
 8 5538… 020      1986      11      9327    31    NA <NA>   Resp… Marrie… Female
 9 5532… 020      1986       7      8962    31     5 None   Resp… Marrie… Female
10 5532… 020      1985       7      8474    39     3 None   Resp… Marrie… Female
# ℹ 2,718 more rows
# ℹ 20 more variables: age_months <dbl>, race_original <chr>, smokeever <chr>,
#   smoke2now <chr>, drink <chr>, weight <dbl>, self_health <chr>,
#   high_bp <chr>, diab <chr>, cancer <chr>, lung_dis <chr>, heart_dis <chr>,
#   strk <chr>, psych_prob <chr>, sleep_prob <chr>, arthritis <chr>,
#   cond_count <dbl>, r16hosp <dbl>, r16cesd <dbl>, income <dbl>

Sorting datasets by multiple variables

You can also arrange by multiple variables.

The code below sorts by age first, and then within age, we sort by pn.

hrs_data |> 
1  arrange(age, ed)

1

This will sort by age first, and then within age, it will sort by ed.

# A tibble: 2,728 × 31
   hhid  pn    birthyr birthmo birthdate   age    ed degree proxy coupled female
   <chr> <chr>   <dbl>   <dbl>     <dbl> <dbl> <dbl> <chr>  <chr> <chr>   <chr> 
 1 5532… 020      1986       7      8962    31     5 None   Resp… Marrie… Female
 2 5516… 020      1984       6     11215    31    15 Bache… Resp… Marrie… Female
 3 5533… 020      1990       7     10057    31    16 Assoc… Resp… Marrie… Female
 4 5538… 020      1986      11      9327    31    NA <NA>   Resp… Marrie… Female
 5 5532… 020      1990       8      8962    34     4 None   Resp… Marrie… Female
 6 5579… 020      1986      12      9327    34    16 Maste… Resp… Marrie… Female
 7 5538… 020      1984       9     10332    34    NA <NA>   Resp… Marrie… Female
 8 5516… 020      1987       7      9327    35    14 Bache… Resp… Marrie… Female
 9 5579… 020      1986      12      9327    35    16 Maste… Resp… Marrie… Female
10 5579… 020      1985      12      9784    35    16 Maste… Resp… Marrie… Female
# ℹ 2,718 more rows
# ℹ 20 more variables: age_months <dbl>, race_original <chr>, smokeever <chr>,
#   smoke2now <chr>, drink <chr>, weight <dbl>, self_health <chr>,
#   high_bp <chr>, diab <chr>, cancer <chr>, lung_dis <chr>, heart_dis <chr>,
#   strk <chr>, psych_prob <chr>, sleep_prob <chr>, arthritis <chr>,
#   cond_count <dbl>, r16hosp <dbl>, r16cesd <dbl>, income <dbl>

Sorting datasets by multiple variables: order matters!

hrs_data |> 
1  arrange(ed, age)

1

This will sort by ed first, and then within ed, it will sort by age. This is different from the previous code chunk where we sorted by age first, and then within age, we sorted by ed.

# A tibble: 2,728 × 31
   hhid  pn    birthyr birthmo birthdate   age    ed degree proxy coupled female
   <chr> <chr>   <dbl>   <dbl>     <dbl> <dbl> <dbl> <chr>  <chr> <chr>   <chr> 
 1 5598… 020      1969       4      3392    51     0 None   Resp… Marrie… Male  
 2 5598… 010      1964       7      1596    62     0 None   Resp… Marrie… Female
 3 5528… 020      1961       9       561    62     0 None   Resp… Marrie… Male  
 4 5550… 010      1958       6      -626    65     0 None   Resp… No spo… Male  
 5 5548… 020      1956       7     -1234    66     0 None   Resp… Marrie… Female
 6 5512… 010      1957       5      -930    66     0 None   Resp… No spo… Male  
 7 5528… 020      1957       9     -1539    67     0 None   Resp… Marrie… Female
 8 5528… 020      1953       9     -2330    69     0 None   Resp… Marrie… Female
 9 5516… 010      1952       8     -2695    71     0 None   Resp… No spo… Male  
10 5524… 010      1947      11     -4430    75     0 None   Resp… No spo… Female
# ℹ 2,718 more rows
# ℹ 20 more variables: age_months <dbl>, race_original <chr>, smokeever <chr>,
#   smoke2now <chr>, drink <chr>, weight <dbl>, self_health <chr>,
#   high_bp <chr>, diab <chr>, cancer <chr>, lung_dis <chr>, heart_dis <chr>,
#   strk <chr>, psych_prob <chr>, sleep_prob <chr>, arthritis <chr>,
#   cond_count <dbl>, r16hosp <dbl>, r16cesd <dbl>, income <dbl>
…
distinct() allows us to keep only unique rows based on the values in one or more columns

distinct() can run without any arguments: it will return all unique rows in the dataset

This can be helpful if you have repeat observations in your dataset and you want to keep only one of each

distinct() can also take specific columns as arguments: it will return unique rows based on the values in those columns

Example: keep unique rows in dataset

hrs_data |> 
  distinct()

# A tibble: 2,660 × 31
   hhid  pn    birthyr birthmo birthdate   age    ed degree proxy coupled female
   <chr> <chr>   <dbl>   <dbl>     <dbl> <dbl> <dbl> <chr>  <chr> <chr>   <chr> 
 1 5590… 010      1967      12      2905    54    13 Assoc… Resp… No spo… Female
 2 5548… 020      1956       7     -1234    66     0 None   Resp… Marrie… Female
 3 5586… 010      1968       3      2996    54    NA <NA>   Resp… No spo… Female
 4 5555… 010      1966       4      2296    57    NA <NA>   Resp… No spo… Female
 5 5555… 020      1967       7      2752    55    10 None   Resp… Marrie… Female
 6 5576… 010      1971       5      4152    51    NA <NA>   Resp… No spo… Female
 7 5557… 020      1954       6     -1934    68    12 High … Resp… Marrie… Female
 8 5521… 010      1965      10      2114    57    15 Assoc… Resp… Marrie… Male  
 9 5504… 010      1969       3      3361    54    14 Bache… Resp… Marrie… Female
10 5574… 010      1970       3      3698    53    16 Maste… Resp… Marrie… Female
# ℹ 2,650 more rows
# ℹ 20 more variables: age_months <dbl>, race_original <chr>, smokeever <chr>,
#   smoke2now <chr>, drink <chr>, weight <dbl>, self_health <chr>,
#   high_bp <chr>, diab <chr>, cancer <chr>, lung_dis <chr>, heart_dis <chr>,
#   strk <chr>, psych_prob <chr>, sleep_prob <chr>, arthritis <chr>,
#   cond_count <dbl>, r16hosp <dbl>, r16cesd <dbl>, income <dbl>
…
Example: keep unique rows based on degree and self_health

hrs_data |> 
  distinct(
1    degree,
    self_health
    )

1

This will return unique rows based on the values in the degree and self_health columns. This allows us to see unique combinations of degree and self_health in our dataset.

# A tibble: 42 × 2
   degree                              self_health
   <chr>                               <chr>      
 1 Associate's degree                  Fair       
 2 None                                Fair       
 3 <NA>                                Good       
 4 None                                Very Good  
 5 <NA>                                Fair       
 6 High school diploma                 Fair       
 7 Associate's degree                  Very Good  
 8 Bachelor's degree                   Fair       
 9 Master's degree                     Poor       
10 Professional degree (Ph.D./M.D./JD) Very Good  
# ℹ 32 more rows
…
