Data transformation: Columns, Advanced – Introduction to R
…
There are ways to select columns by “searching” for them.

These are called {tidyselect} helpers.

See more examples from the {tidyselect} webpage.

contains

For instance, you can see how this might be useful, where we select all columns where the column name includes the word “race”:

hrs_data |> 
  select(contains("race"))

# A tibble: 2,728 × 1
   race_original         
   <chr>                 
 1 White/Caucasian       
 2 <NA>                  
 3 <NA>                  
 4 <NA>                  
 5 Black/African American
 6 <NA>                  
 7 Other                 
 8 Other                 
 9 White/Caucasian       
10 White/Caucasian       
# ℹ 2,718 more rows
…
