Introduction to R – Tidy data
…
Our HRS data are in tidy form

Each column is a piece of information for an individual in the dataset

tibble(hrs_data) |> print(n = 8)

# A tibble: 2,728 × 32
  hhid   pn    id    birthyr birthmo birthdate proxy coupled sex   age_mo age_yr
  <fct>  <fct> <chr>   <dbl>   <dbl>     <dbl> <fct> <fct>   <fct>  <dbl>  <dbl>
1 552754 010   5527…    1967       9      2814 Resp… Not a … Fema…    665     55
2 555339 020   5553…    1966       7      2387 Resp… Couple… Fema…    676     56
3 559734 010   5597…    1967       3      2602 Resp… Couple… Male     663     55
4 558143 020   5581…    1973      10      5036 Resp… Couple… Male     600     50
5 554789 020   5547…    1950       7     -3153 Resp… Couple… Male     860     71
6 551018 010   5510…    1970       1      3667 Resp… Not a … Fema…    632     52
7 550516 010   5505…    1960       1        14 Resp… Not a … Male     749     62
8 559093 010   5590…    1971       4      4122 Resp… Couple… Male     621     51
# ℹ 2,720 more rows
# ℹ 21 more variables: ed <dbl>, degree <fct>, race_original <fct>,
#   smoke_ever <fct>, smoke_now <fct>, drink <fct>, height <dbl>, srh <fct>,
#   act_vig <fct>, bp <fct>, diab <fct>, cancer <fct>, lung <fct>, hrt <fct>,
#   strk <fct>, psych <fct>, sleep <fct>, arth <fct>, cond_count <dbl>,
#   cesd <dbl>, income <dbl>
…
