Data transformation: Columns – Introduction to R
…
Let’s convert age_months into years by dividing it by 12

We will name this new variable age_yrs

hrs_data |> 
  mutate(
1    age_yrs = age_months / 12
  )

1

Notice we use a single = inside mutate, not == or <-. This sets our new column name equal to the mathematical operation.

# A tibble: 2,728 × 32
   hhid  pn    birthyr birthmo birthdate    ed degree race_original female proxy
   <chr> <chr>   <dbl>   <dbl>     <dbl> <dbl> <chr>  <chr>         <chr>  <chr>
 1 5590… 010      1967      12      2905    13 Assoc… White/Caucas… Female Resp…
 2 5548… 020      1956       7     -1234     0 None   <NA>          Female Resp…
 3 5586… 010      1968       3      2996    NA <NA>   <NA>          Female Resp…
 4 5555… 010      1966       4      2296    NA <NA>   <NA>          Female Resp…
 5 5555… 020      1967       7      2752    10 None   Black/Africa… Female Resp…
 6 5576… 010      1971       5      4152    NA <NA>   <NA>          Female Resp…
 7 5557… 020      1954       6     -1934    12 High … Other         Female Resp…
 8 5521… 010      1965      10      2114    15 Assoc… Other         Male   Resp…
 9 5504… 010      1969       3      3361    14 Bache… White/Caucas… Female Resp…
10 5574… 010      1970       3      3698    16 Maste… White/Caucas… Female Resp…
# ℹ 2,718 more rows
# ℹ 22 more variables: coupled <chr>, age_months <dbl>, age <dbl>,
#   smokeever <chr>, smoke2now <chr>, drink <chr>, weight <dbl>,
#   self_health <chr>, high_bp <chr>, diab <chr>, cancer <chr>, lung_dis <chr>,
#   heart_dis <chr>, strk <chr>, psych_prob <chr>, sleep_prob <chr>,
#   arthritis <chr>, cond_count <dbl>, r16hosp <dbl>, r16cesd <dbl>,
#   income <dbl>, age_yrs <dbl>
…
Let’s keep only three variables from our dataset: age, smoke2now, and diab

Column names do NOT need quotes in select()

hrs_data2 |> 
  select(
1    age, smoke2now, diab
  )

1

We provide the exact column names we want to keep, separated by commas. All other columns will be dropped from the output.

# A tibble: 2,728 × 3
     age smoke2now diab 
   <dbl> <chr>     <chr>
 1    54 Yes       No   
 2    66 No        No   
 3    54 No        No   
 4    57 No        No   
 5    55 Yes       No   
 6    51 Yes       No   
 7    68 Yes       No   
 8    57 Yes       No   
 9    54 Yes       No   
10    53 No        Yes  
# ℹ 2,718 more rows

Example: removing specific columns

If we want to keep everything except a few specified variables, we use a minus sign (-)

hrs_data2 |> 
  select(
1    -drink, -lung_dis
  )

1

Placing - in front of drink and lung_dis explicitly drops them, while retaining every other original variable.

# A tibble: 2,728 × 31
   hhid  pn    birthyr birthmo birthdate    ed degree race_original female proxy
   <chr> <chr>   <dbl>   <dbl>     <dbl> <dbl> <chr>  <chr>         <chr>  <chr>
 1 5590… 010      1967      12      2905    13 Assoc… White/Caucas… Female Resp…
 2 5548… 020      1956       7     -1234     0 None   <NA>          Female Resp…
 3 5586… 010      1968       3      2996    NA <NA>   <NA>          Female Resp…
 4 5555… 010      1966       4      2296    NA <NA>   <NA>          Female Resp…
 5 5555… 020      1967       7      2752    10 None   Black/Africa… Female Resp…
 6 5576… 010      1971       5      4152    NA <NA>   <NA>          Female Resp…
 7 5557… 020      1954       6     -1934    12 High … Other         Female Resp…
 8 5521… 010      1965      10      2114    15 Assoc… Other         Male   Resp…
 9 5504… 010      1969       3      3361    14 Bache… White/Caucas… Female Resp…
10 5574… 010      1970       3      3698    16 Maste… White/Caucas… Female Resp…
# ℹ 2,718 more rows
# ℹ 21 more variables: coupled <chr>, age_months <dbl>, age <dbl>,
#   smokeever <chr>, smoke2now <chr>, weight <dbl>, self_health <chr>,
#   high_bp <chr>, diab <chr>, cancer <chr>, heart_dis <chr>, strk <chr>,
#   psych_prob <chr>, sleep_prob <chr>, arthritis <chr>, cond_count <dbl>,
#   r16hosp <dbl>, r16cesd <dbl>, income <dbl>, age_yrs <dbl>,
#   age_decades <dbl>

Example: selecting consecutive columns

We can select a continuous block of columns using the : operator

hrs_data2 |> 
  select(
1    age:drink
  )

1

This keeps age, drink, and every single column positioned between them in the data frame. Make sure you know your column order before using this!

# A tibble: 2,728 × 4
     age smokeever smoke2now drink
   <dbl> <chr>     <chr>     <chr>
 1    54 No        Yes       Yes  
 2    66 No        No        No   
 3    54 No        No        No   
 4    57 No        No        Yes  
 5    55 Yes       Yes       Yes  
 6    51 Yes       Yes       Yes  
 7    68 No        Yes       Yes  
 8    57 No        Yes       Yes  
 9    54 Yes       Yes       Yes  
10    53 Yes       No        Yes  
# ℹ 2,718 more rows
…
